…
Convert to tidy dat (let's just assume that it will help later)
===
Tidy dataset:  

```r
us_cities <- as.tibble(us.cities)
us_cities
```

```
# A tibble: 1,005 x 6
   name           country.etc    pop   lat   long capital
   <chr>          <chr>        <int> <dbl>  <dbl>   <int>
 1 Abilene TX     TX          113888  32.4  -99.7       0
 2 Akron OH       OH          206634  41.1  -81.5       0
 3 Alameda CA     CA           70069  37.8 -122.        0
 4 Albany GA      GA           75510  31.6  -84.2       0
 5 Albany NY      NY           93576  42.7  -73.8       2
 6 Albany OR      OR           45535  44.6 -123.        0
 7 Albuquerque NM NM          494962  35.1 -107.        0
 8 Alexandria LA  LA           44933  31.3  -92.5       0
 9 Alexandria VA  VA          127159  38.8  -77.1       0
10 Alhambra CA    CA           88857  34.1 -118.        0
# ... with 995 more rows
```
